%YAML 1.1
%TAG !u! tag:unity3d.com,2011:
--- !u!74 &7400000
AnimationClip:
  m_ObjectHideFlags: 0
  m_PrefabParentObject: {fileID: 0}
  m_PrefabInternal: {fileID: 0}
  m_Name: New Animation
  serializedVersion: 6
  m_Legacy: 0
  m_Compressed: 0
  m_UseHighQualityCurve: 1
  m_RotationCurves: []
  m_CompressedRotationCurves: []
  m_EulerCurves: []
  m_PositionCurves: []
  m_ScaleCurves: []
  m_FloatCurves: []
  m_PPtrCurves:
  - curve:
    - time: 0
      value: {fileID: 21300000, guid: 06266972fd18b8d4f8d8f5b0832e11f7, type: 3}
    - time: 0.1
      value: {fileID: 21300000, guid: ad131fb1e59e4f44abe3ed6c30f5f98a, type: 3}
    - time: 0.2
      value: {fileID: 21300000, guid: 97295aa51b385f44cbba2aacb111af94, type: 3}
    - time: 0.3
      value: {fileID: 21300000, guid: 68072897f00f2f44d8220418f45696e0, type: 3}
    - time: 0.4
      value: {fileID: 21300000, guid: 0540ace045357c24db191155b5ab19bf, type: 3}
    - time: 0.5
      value: {fileID: 21300000, guid: cf19276f8e8e9f54f90b2c185b334096, type: 3}
    - time: 0.6
      value: {fileID: 21300000, guid: f3cbe8017dda21b46ad064460c07f533, type: 3}
    - time: 0.7
      value: {fileID: 21300000, guid: 1b8689bd5629179409ab7a0879249faf, type: 3}
    - time: 0.8
      value: {fileID: 21300000, guid: e1ac92ce0197b6642b56e3986cb709cc, type: 3}
    - time: 0.9
      value: {fileID: 21300000, guid: dd11ce3fdd15f1247806ccf3f785e4ce, type: 3}
    attribute: m_Sprite
    path: 
    classID: 212
    script: {fileID: 0}
  m_SampleRate: 10
  m_WrapMode: 0
  m_Bounds:
    m_Center: {x: 0, y: 0, z: 0}
    m_Extent: {x: 0, y: 0, z: 0}
  m_ClipBindingConstant:
    genericBindings:
    - serializedVersion: 2
      path: 0
      attribute: 0
      script: {fileID: 0}
      typeID: 212
      customType: 23
      isPPtrCurve: 1
    pptrCurveMapping:
    - {fileID: 21300000, guid: 06266972fd18b8d4f8d8f5b0832e11f7, type: 3}
    - {fileID: 21300000, guid: ad131fb1e59e4f44abe3ed6c30f5f98a, type: 3}
    - {fileID: 21300000, guid: 97295aa51b385f44cbba2aacb111af94, type: 3}
    - {fileID: 21300000, guid: 68072897f00f2f44d8220418f45696e0, type: 3}
    - {fileID: 21300000, guid: 0540ace045357c24db191155b5ab19bf, type: 3}
    - {fileID: 21300000, guid: cf19276f8e8e9f54f90b2c185b334096, type: 3}
    - {fileID: 21300000, guid: f3cbe8017dda21b46ad064460c07f533, type: 3}
    - {fileID: 21300000, guid: 1b8689bd5629179409ab7a0879249faf, type: 3}
    - {fileID: 21300000, guid: e1ac92ce0197b6642b56e3986cb709cc, type: 3}
    - {fileID: 21300000, guid: dd11ce3fdd15f1247806ccf3f785e4ce, type: 3}
  m_AnimationClipSettings:
    serializedVersion: 2
    m_AdditiveReferencePoseClip: {fileID: 0}
    m_AdditiveReferencePoseTime: 0
    m_StartTime: 0
    m_StopTime: 1
    m_OrientationOffsetY: 0
    m_Level: 0
    m_CycleOffset: 0
    m_HasAdditiveReferencePose: 0
    m_LoopTime: 1
    m_LoopBlend: 0
    m_LoopBlendOrientation: 0
    m_LoopBlendPositionY: 0
    m_LoopBlendPositionXZ: 0
    m_KeepOriginalOrientation: 0
    m_KeepOriginalPositionY: 1
    m_KeepOriginalPositionXZ: 0
    m_HeightFromFeet: 0
    m_Mirror: 0
  m_EditorCurves: []
  m_EulerEditorCurves: []
  m_HasGenericRootTransform: 0
  m_HasMotionFloatCurves: 0
  m_GenerateMotionCurves: 0
  m_Events: []
